projects/vga/ov5640/test.vcd
$date
	Sun Feb  2 11:11:39 2025
$end
$version
	Icarus Verilog
$end
$timescale
	1s
$end
$scope module initialize_tb $end
$var wire 1 ! sda $end
$upscope $end
$scope module initialize_tb $end
$var wire 1 " scl $end
$upscope $end
$scope module initialize_tb $end
$var wire 1 # pulse_send $end
$upscope $end
$scope module initialize_tb $end
$var wire 1 $ finished $end
$upscope $end
$scope module initialize_tb $end
$var wire 1 % i2c_done $end
$upscope $end
$scope module initialize_tb $end
$var wire 8 & step [7:0] $end
$upscope $end
$enddefinitions $end
$comment Show the parameter values. $end
$dumpall
$end
#0
$dumpvars
b0 &
0%
0$
0#
1"
z!
$end
#10
1#
#20
0#
#375
0!
#627
0"
#1131
z!
#1151
1"
#1237
0"
#1403
1"
#1489
0"
#1655
1"
#1741
0"
#1907
1"
#1993
0"
#2139
0!
#2159
1"
#2245
0"
#2411
1"
#2497
0"
#2663
1"
#2749
0"
#2915
1"
#3001
0"
#3147
z!
#3167
1"
#3253
0"
#3399
0!
#3419
1"
#3505
0"
#3671
1"
#3757
0"
#3923
1"
#4009
0"
#4175
1"
#4261
0"
#4427
1"
#4513
0"
#4679
1"
#4765
0"
#4931
1"
#5017
0"
#5183
1"
#5269
0"
#5415
z!
#5435
1"
#5521
0"
#5667
0!
#5687
1"
#5773
0"
#5939
1"
#6025
0"
#6191
1"
#6277
0"
#6443
1"
#6529
0"
#6695
1"
#6781
0"
#6947
1"
#7033
0"
#7199
1"
#7285
0"
#7451
1"
#7537
0"
#7683
z!
#7703
1"
#7789
0"
#7955
1"
#8041
0"
#8187
0!
#8207
1"
#8293
0"
#8459
1"
#8545
0"
#8711
1"
#8797
0"
#8963
1"
#9049
0"
#9215
1"
#9301
0"
#9447
z!
#9467
1"
#9553
0"
#9719
1"
#9805
0"
#9971
1"
#10057
0"
#10203
0!
#10455
1"
#10707
z!
#10959
b1 &
1%
#11211
0%
#11463
0!
#11715
0"
#12219
z!
#12239
1"
#12325
0"
#12491
1"
#12577
0"
#12743
1"
#12829
0"
#12995
1"
#13081
0"
#13227
0!
#13247
1"
#13333
0"
#13499
1"
#13585
0"
#13751
1"
#13837
0"
#14003
1"
#14089
0"
#14235
z!
#14255
1"
#14341
0"
#14487
0!
#14507
1"
#14593
0"
#14759
1"
#14845
0"
#15011
1"
#15097
0"
#15263
1"
#15349
0"
#15515
1"
#15601
0"
#15767
1"
#15853
0"
#16019
1"
#16105
0"
#16271
1"
#16357
0"
#16503
z!
#16523
1"
#16609
0"
#16755
0!
#16775
1"
#16861
0"
#17027
1"
#17113
0"
#17279
1"
#17365
0"
#17531
1"
#17617
0"
#17783
1"
#17869
0"
#18035
1"
#18121
0"
#18287
1"
#18373
0"
#18539
1"
#18625
0"
#18771
z!
#18791
1"
#18877
0"
#19023
0!
#19043
1"
#19129
0"
#19295
1"
#19381
0"
#19547
1"
#19633
0"
#19799
1"
#19885
0"
#20051
1"
#20137
0"
#20303
1"
#20389
0"
#20555
1"
#20641
0"
#20807
1"
#20893
0"
#21039
z!
#21059
1"
#21145
0"
#21291
0!
#21543
1"
#21795
z!
#22047
b10 &
1$
1%
#22299
0%
