projects/vga/ov5640/test.vcd
$date
	Sun Feb  2 19:05:15 2025
$end
$version
	Icarus Verilog
$end
$timescale
	1s
$end
$scope module start_up_tb $end
$var wire 1 ! sda $end
$upscope $end
$scope module start_up_tb $end
$var wire 1 " scl $end
$upscope $end
$scope module start_up_tb $end
$var wire 1 # started $end
$upscope $end
$scope module start_up_tb $end
$var wire 1 $ reset $end
$upscope $end
$scope module start_up_tb $end
$var wire 1 % pulse $end
$upscope $end
$scope module start_up_tb $end
$var wire 4 & step [3:0] $end
$upscope $end
$enddefinitions $end
$comment Show the parameter values. $end
$dumpall
$end
#0
$dumpvars
b0 &
0%
0$
0#
1"
z!
$end
#100001
b1 &
z$
#1150003
b10 &
#1150005
1%
#1150015
b11 &
0%
#1150251
0!
#1150503
0"
#1151007
z!
#1151027
1"
#1151113
0"
#1151279
1"
#1151365
0"
#1151531
1"
#1151617
0"
#1151783
1"
#1151869
0"
#1152015
0!
#1152035
1"
#1152121
0"
#1152287
1"
#1152373
0"
#1152539
1"
#1152625
0"
#1152791
1"
#1152877
0"
#1153043
1"
#1153129
0"
#1153295
1"
#1153381
0"
#1153547
1"
#1153633
0"
#1153799
1"
#1153885
0"
#1154051
1"
#1154137
0"
#1154303
1"
#1154389
0"
#1154555
1"
#1154641
0"
#1154807
1"
#1154893
0"
#1155059
1"
#1155145
0"
#1155311
1"
#1155397
0"
#1155563
1"
#1155649
0"
#1155815
1"
#1155901
0"
#1156067
1"
#1156153
0"
#1156319
1"
#1156405
0"
#1156571
1"
#1156657
0"
#1156823
1"
#1156909
0"
#1157075
1"
#1157161
0"
#1157327
1"
#1157413
0"
#1157579
1"
#1157665
0"
#1157811
z!
#1157831
1"
#1157917
0"
#1158063
0!
#1158083
1"
#1158169
0"
#1158335
1"
#1158421
0"
#1158587
1"
#1158673
0"
#1158839
1"
#1158925
0"
#1159091
1"
#1159177
0"
#1159323
z!
#1159343
1"
#1159429
0"
#1159595
1"
#1159681
0"
#1159827
0!
#1159847
1"
#1159933
0"
#1160331
1"
#1160583
z!
#1161339
0!
#1161591
0"
#1162095
z!
#1162115
1"
#1162201
0"
#1162367
1"
#1162453
0"
#1162619
1"
#1162705
0"
#1162871
1"
#1162957
0"
#1163103
0!
#1163123
1"
#1163209
0"
#1163375
1"
#1163461
0"
#1163627
1"
#1163713
0"
#1163879
1"
#1163965
0"
#1164131
1"
#1164217
0"
#1164383
1"
#1164469
0"
#1164635
1"
#1164721
0"
#1164887
1"
#1164973
0"
#1165139
1"
#1165225
0"
#1165391
1"
#1165477
0"
#1165643
1"
#1165729
0"
#1165895
1"
#1165981
0"
#1166147
1"
#1166233
0"
#1166399
1"
#1166485
0"
#1166651
1"
#1166737
0"
#1166903
1"
#1166989
0"
#1167155
1"
#1167241
0"
#1167407
1"
#1167493
0"
#1167659
1"
#1167745
0"
#1167891
z!
#1167911
1"
#1167997
0"
#1168143
0!
#1168163
1"
#1168249
0"
#1168415
1"
#1168501
0"
#1168667
1"
#1168753
0"
#1168899
z!
#1168919
1"
#1169005
0"
#1169171
1"
#1169257
0"
#1169403
0!
#1169423
1"
#1169509
0"
#1169655
z!
#1169675
1"
#1169761
0"
#1169907
0!
#1169927
1"
#1170013
0"
#1170179
1"
#1170265
0"
#1170411
z!
#1170431
1"
#1170517
0"
#1170663
0!
#1170683
1"
#1170769
0"
#1170935
1"
#1171021
0"
#1171419
1"
#1171671
z!
#1172427
0!
#1172679
0"
#1173183
z!
#1173203
1"
#1173289
0"
#1173455
1"
#1173541
0"
#1173707
1"
#1173793
0"
#1173959
1"
#1174045
0"
#1174191
0!
#1174211
1"
#1174297
0"
#1174463
1"
#1174549
0"
#1174715
1"
#1174801
0"
#1174967
1"
#1175053
0"
#1175219
1"
#1175305
0"
#1175471
1"
#1175557
0"
#1175723
1"
#1175809
0"
#1175975
1"
#1176061
0"
#1176227
1"
#1176313
0"
#1176479
1"
#1176565
0"
#1176731
1"
#1176817
0"
#1176983
1"
#1177069
0"
#1177235
1"
#1177321
0"
#1177487
1"
#1177573
0"
#1177739
1"
#1177825
0"
#1177991
1"
#1178077
0"
#1178243
1"
#1178329
0"
#1178495
1"
#1178581
0"
#1178747
1"
#1178833
0"
#1178999
1"
#1179085
0"
#1179251
1"
#1179337
0"
#1179503
1"
#1179589
0"
#1179755
1"
#1179841
0"
#1179987
z!
#1180007
1"
#1180093
0"
#1180239
0!
#1180259
1"
#1180345
0"
#1180511
1"
#1180597
0"
#1180763
1"
#1180849
0"
#1181015
1"
#1181101
0"
#1181267
1"
#1181353
0"
#1181499
z!
#1181519
1"
#1181605
0"
#1181771
1"
#1181857
0"
#1182003
0!
#1182023
1"
#1182109
0"
#1182507
1"
#1182759
z!
#1183515
0!
#1183767
0"
#1184271
z!
#1184291
1"
#1184377
0"
#1184543
1"
#1184629
0"
#1184795
1"
#1184881
0"
#1185047
1"
#1185133
0"
#1185279
0!
#1185299
1"
#1185385
0"
#1185551
1"
#1185637
0"
#1185803
1"
#1185889
0"
#1186055
1"
#1186141
0"
#1186307
1"
#1186393
0"
#1186559
1"
#1186645
0"
#1186811
1"
#1186897
0"
#1187063
1"
#1187149
0"
#1187315
1"
#1187401
0"
#1187567
1"
#1187653
0"
#1187819
1"
#1187905
0"
#1188071
1"
#1188157
0"
#1188323
1"
#1188409
0"
#1188575
1"
#1188661
0"
#1188827
1"
#1188913
0"
#1189079
1"
#1189165
0"
#1189331
1"
#1189417
0"
#1189583
1"
#1189669
0"
#1189815
z!
#1189835
1"
#1189921
0"
#1190067
0!
#1190087
1"
#1190173
0"
#1190339
1"
#1190425
0"
#1190571
z!
#1190591
1"
#1190677
0"
#1190823
0!
#1190843
1"
#1190929
0"
#1191095
1"
#1191181
0"
#1191347
1"
#1191433
0"
#1191579
z!
#1191599
1"
#1191685
0"
#1191831
0!
#1191851
1"
#1191937
0"
#1192103
1"
#1192189
0"
#1192335
z!
#1192355
1"
#1192441
0"
#1192607
1"
#1192693
0"
#1192859
1"
#1192945
0"
#1193091
0!
#1193111
1"
#1193197
0"
#1193595
1"
#1193847
z!
#1194603
0!
#1194855
0"
#1195359
z!
#1195379
1"
#1195465
0"
#1195631
1"
#1195717
0"
#1195883
1"
#1195969
0"
#1196135
1"
#1196221
0"
#1196367
0!
#1196387
1"
#1196473
0"
#1196639
1"
#1196725
0"
#1196891
1"
#1196977
0"
#1197143
1"
#1197229
0"
#1197395
1"
#1197481
0"
#1197647
1"
#1197733
0"
#1197899
1"
#1197985
0"
#1198151
1"
#1198237
0"
#1198403
1"
#1198489
0"
#1198655
1"
#1198741
0"
#1198907
1"
#1198993
0"
#1199159
1"
#1199245
0"
#1199411
1"
#1199497
0"
#1199663
1"
#1199749
0"
#1199915
1"
#1200001
0"
#1200167
1"
#1200253
0"
#1200419
1"
#1200505
0"
#1200671
1"
#1200757
0"
#1200923
1"
#1201009
0"
#1201175
1"
#1201261
0"
#1201427
1"
#1201513
0"
#1201679
1"
#1201765
0"
#1201931
1"
#1202017
0"
#1202163
z!
#1202183
1"
#1202269
0"
#1202415
0!
#1202435
1"
#1202521
0"
#1202687
1"
#1202773
0"
#1202939
1"
#1203025
0"
#1203191
1"
#1203277
0"
#1203443
1"
#1203529
0"
#1203675
z!
#1203695
1"
#1203781
0"
#1203947
1"
#1204033
0"
#1204179
0!
#1204199
1"
#1204285
0"
#1204683
1"
#1204935
z!
#1205691
0!
#1205943
0"
#1206447
z!
#1206467
1"
#1206553
0"
#1206719
1"
#1206805
0"
#1206971
1"
#1207057
0"
#1207223
1"
#1207309
0"
#1207455
0!
#1207475
1"
#1207561
0"
#1207727
1"
#1207813
0"
#1207979
1"
#1208065
0"
#1208231
1"
#1208317
0"
#1208483
1"
#1208569
0"
#1208735
1"
#1208821
0"
#1208987
1"
#1209073
0"
#1209239
1"
#1209325
0"
#1209491
1"
#1209577
0"
#1209743
1"
#1209829
0"
#1209995
1"
#1210081
0"
#1210247
1"
#1210333
0"
#1210499
1"
#1210585
0"
#1210751
1"
#1210837
0"
#1211003
1"
#1211089
0"
#1211255
1"
#1211341
0"
#1211507
1"
#1211593
0"
#1211759
1"
#1211845
0"
#1211991
z!
#1212011
1"
#1212097
0"
#1212263
1"
#1212349
0"
#1212495
0!
#1212515
1"
#1212601
0"
#1212767
1"
#1212853
0"
#1213019
1"
#1213105
0"
#1213251
z!
#1213271
1"
#1213357
0"
#1213523
1"
#1213609
0"
#1213755
0!
#1213775
1"
#1213861
0"
#1214007
z!
#1214027
1"
#1214113
0"
#1214259
0!
#1214279
1"
#1214365
0"
#1214511
z!
#1214531
1"
#1214617
0"
#1214763
0!
#1214783
1"
#1214869
0"
#1215035
1"
#1215121
0"
#1215287
1"
#1215373
0"
#1215771
1"
#1216023
z!
#1216779
0!
#1217031
0"
#1217535
z!
#1217555
1"
#1217641
0"
#1217807
1"
#1217893
0"
#1218059
1"
#1218145
0"
#1218311
1"
#1218397
0"
#1218543
0!
#1218563
1"
#1218649
0"
#1218815
1"
#1218901
0"
#1219067
1"
#1219153
0"
#1219319
1"
#1219405
0"
#1219571
1"
#1219657
0"
#1219823
1"
#1219909
0"
#1220075
1"
#1220161
0"
#1220327
1"
#1220413
0"
#1220579
1"
#1220665
0"
#1220831
1"
#1220917
0"
#1221083
1"
#1221169
0"
#1221335
1"
#1221421
0"
#1221587
1"
#1221673
0"
#1221839
1"
#1221925
0"
#1222091
1"
#1222177
0"
#1222343
1"
#1222429
0"
#1222595
1"
#1222681
0"
#1222847
1"
#1222933
0"
#1223099
1"
#1223185
0"
#1223351
1"
#1223437
0"
#1223603
1"
#1223689
0"
#1223855
1"
#1223941
0"
#1224107
1"
#1224193
0"
#1224339
z!
#1224359
1"
#1224445
0"
#1224591
0!
#1224611
1"
#1224697
0"
#1224863
1"
#1224949
0"
#1225115
1"
#1225201
0"
#1225367
1"
#1225453
0"
#1225619
1"
#1225705
0"
#1225851
z!
#1225871
1"
#1225957
0"
#1226123
1"
#1226209
0"
#1226355
0!
#1226375
1"
#1226461
0"
#1226859
1"
#1227111
z!
#1227867
0!
#1228119
0"
#1228623
z!
#1228643
1"
#1228729
0"
#1228895
1"
#1228981
0"
#1229147
1"
#1229233
0"
#1229399
1"
#1229485
0"
#1229631
0!
#1229651
1"
#1229737
0"
#1229903
1"
#1229989
0"
#1230155
1"
#1230241
0"
#1230407
1"
#1230493
0"
#1230659
1"
#1230745
0"
#1230911
1"
#1230997
0"
#1231163
1"
#1231249
0"
#1231415
1"
#1231501
0"
#1231667
1"
#1231753
0"
#1231919
1"
#1232005
0"
#1232171
1"
#1232257
0"
#1232423
1"
#1232509
0"
#1232675
1"
#1232761
0"
#1232927
1"
#1233013
0"
#1233179
1"
#1233265
0"
#1233431
1"
#1233517
0"
#1233683
1"
#1233769
0"
#1233935
1"
#1234021
0"
#1234187
1"
#1234273
0"
#1234439
1"
#1234525
0"
#1234691
1"
#1234777
0"
#1234943
1"
#1235029
0"
#1235195
1"
#1235281
0"
#1235447
1"
#1235533
0"
#1235699
1"
#1235785
0"
#1235951
1"
#1236037
0"
#1236183
z!
#1236203
1"
#1236289
0"
#1236435
0!
#1236455
1"
#1236541
0"
#1236707
1"
#1236793
0"
#1236939
z!
#1236959
1"
#1237045
0"
#1237211
1"
#1237297
0"
#1237443
0!
#1237463
1"
#1237549
0"
#1237947
1"
#1238199
z!
#1238955
0!
#1239207
0"
#1239711
z!
#1239731
1"
#1239817
0"
#1239983
1"
#1240069
0"
#1240235
1"
#1240321
0"
#1240487
1"
#1240573
0"
#1240719
0!
#1240739
1"
#1240825
0"
#1240991
1"
#1241077
0"
#1241243
1"
#1241329
0"
#1241495
1"
#1241581
0"
#1241747
1"
#1241833
0"
#1241999
1"
#1242085
0"
#1242251
1"
#1242337
0"
#1242503
1"
#1242589
0"
#1242755
1"
#1242841
0"
#1243007
1"
#1243093
0"
#1243259
1"
#1243345
0"
#1243511
1"
#1243597
0"
#1243763
1"
#1243849
0"
#1244015
1"
#1244101
0"
#1244267
1"
#1244353
0"
#1244519
1"
#1244605
0"
#1244771
1"
#1244857
0"
#1245023
1"
#1245109
0"
#1245275
1"
#1245361
0"
#1245527
1"
#1245613
0"
#1245779
1"
#1245865
0"
#1246031
1"
#1246117
0"
#1246283
1"
#1246369
0"
#1246515
z!
#1246535
1"
#1246621
0"
#1246767
0!
#1246787
1"
#1246873
0"
#1247039
1"
#1247125
0"
#1247291
1"
#1247377
0"
#1247543
1"
#1247629
0"
#1247795
1"
#1247881
0"
#1248027
z!
#1248047
1"
#1248133
0"
#1248299
1"
#1248385
0"
#1248531
0!
#1248551
1"
#1248637
0"
#1249035
1"
#1249287
z!
#1250043
0!
#1250295
0"
#1250799
z!
#1250819
1"
#1250905
0"
#1251071
1"
#1251157
0"
#1251323
1"
#1251409
0"
#1251575
1"
#1251661
0"
#1251807
0!
#1251827
1"
#1251913
0"
#1252079
1"
#1252165
0"
#1252331
1"
#1252417
0"
#1252583
1"
#1252669
0"
#1252835
1"
#1252921
0"
#1253087
1"
#1253173
0"
#1253339
1"
#1253425
0"
#1253591
1"
#1253677
0"
#1253843
1"
#1253929
0"
#1254095
1"
#1254181
0"
#1254347
1"
#1254433
0"
#1254599
1"
#1254685
0"
#1254851
1"
#1254937
0"
#1255103
1"
#1255189
0"
#1255355
1"
#1255441
0"
#1255607
1"
#1255693
0"
#1255859
1"
#1255945
0"
#1256111
1"
#1256197
0"
#1256343
z!
#1256363
1"
#1256449
0"
#1256595
0!
#1256615
1"
#1256701
0"
#1256867
1"
#1256953
0"
#1257099
z!
#1257119
1"
#1257205
0"
#1257351
0!
#1257371
1"
#1257457
0"
#1257623
1"
#1257709
0"
#1257875
1"
#1257961
0"
#1258107
z!
#1258127
1"
#1258213
0"
#1258359
0!
#1258379
1"
#1258465
0"
#1258631
1"
#1258717
0"
#1258863
z!
#1258883
1"
#1258969
0"
#1259135
1"
#1259221
0"
#1259387
1"
#1259473
0"
#1259619
0!
#1259639
1"
#1259725
0"
#1260123
1"
#1260375
z!
#1261131
0!
#1261383
0"
#1261887
z!
#1261907
1"
#1261993
0"
#1262159
1"
#1262245
0"
#1262411
1"
#1262497
0"
#1262663
1"
#1262749
0"
#1262895
0!
#1262915
1"
#1263001
0"
#1263167
1"
#1263253
0"
#1263419
1"
#1263505
0"
#1263671
1"
#1263757
0"
#1263923
1"
#1264009
0"
#1264175
1"
#1264261
0"
#1264427
1"
#1264513
0"
#1264679
1"
#1264765
0"
#1264931
1"
#1265017
0"
#1265183
1"
#1265269
0"
#1265435
1"
#1265521
0"
#1265687
1"
#1265773
0"
#1265939
1"
#1266025
0"
#1266191
1"
#1266277
0"
#1266443
1"
#1266529
0"
#1266695
1"
#1266781
0"
#1266947
1"
#1267033
0"
#1267199
1"
#1267285
0"
#1267451
1"
#1267537
0"
#1267703
1"
#1267789
0"
#1267955
1"
#1268041
0"
#1268207
1"
#1268293
0"
#1268459
1"
#1268545
0"
#1268691
z!
#1268711
1"
#1268797
0"
#1268943
0!
#1268963
1"
#1269049
0"
#1269215
1"
#1269301
0"
#1269467
1"
#1269553
0"
#1269719
1"
#1269805
0"
#1269971
1"
#1270057
0"
#1270203
z!
#1270223
1"
#1270309
0"
#1270475
1"
#1270561
0"
#1270707
0!
#1270727
1"
#1270813
0"
#1271211
1"
#1271463
z!
#1271717
1#
