projects/vga/ov5640/test.vcd
$date
	Sun Feb  2 16:01:48 2025
$end
$version
	Icarus Verilog
$end
$timescale
	1s
$end
$scope module start_up_tb $end
$var wire 1 ! sda $end
$upscope $end
$scope module start_up_tb $end
$var wire 1 " scl $end
$upscope $end
$scope module start_up_tb $end
$var wire 1 # started $end
$upscope $end
$scope module start_up_tb $end
$var wire 1 $ reset $end
$upscope $end
$scope module start_up_tb $end
$var wire 1 % pulse $end
$upscope $end
$scope module start_up_tb $end
$var wire 4 & step [3:0] $end
$upscope $end
$enddefinitions $end
$comment Show the parameter values. $end
$dumpall
$end
#0
$dumpvars
b0 &
0%
0$
0#
1"
z!
$end
#100001
b1 &
z$
#1150003
b10 &
#1150005
1%
#1150015
b11 &
0%
#1150251
0!
#1150503
0"
#1151007
z!
#1151027
1"
#1151113
0"
#1151279
1"
#1151365
0"
#1151531
1"
#1151617
0"
#1151783
1"
#1151869
0"
#1152015
0!
#1152035
1"
#1152121
0"
#1152287
1"
#1152373
0"
#1152539
1"
#1152625
0"
#1152791
1"
#1152877
0"
#1153043
1"
#1153129
0"
#1153295
1"
#1153381
0"
#1153547
1"
#1153633
0"
#1153799
1"
#1153885
0"
#1154051
1"
#1154137
0"
#1154303
1"
#1154389
0"
#1154555
1"
#1154641
0"
#1154807
1"
#1154893
0"
#1155059
1"
#1155145
0"
#1155311
1"
#1155397
0"
#1155563
1"
#1155649
0"
#1155815
1"
#1155901
0"
#1156067
1"
#1156153
0"
#1156319
1"
#1156405
0"
#1156571
1"
#1156657
0"
#1156823
1"
#1156909
0"
#1157075
1"
#1157161
0"
#1157327
1"
#1157413
0"
#1157579
1"
#1157665
0"
#1157811
z!
#1157831
1"
#1157917
0"
#1158063
0!
#1158083
1"
#1158169
0"
#1158335
1"
#1158421
0"
#1158587
1"
#1158673
0"
#1158839
1"
#1158925
0"
#1159091
1"
#1159177
0"
#1159323
z!
#1159343
1"
#1159429
0"
#1159595
1"
#1159681
0"
#1159827
0!
#1159847
1"
#1159933
0"
#1160331
1"
#1160583
z!
#1161339
0!
#1161591
0"
#1162095
z!
#1162115
1"
#1162201
0"
#1162367
1"
#1162453
0"
#1162619
1"
#1162705
0"
#1162871
1"
#1162957
0"
#1163103
0!
#1163123
1"
#1163209
0"
#1163375
1"
#1163461
0"
#1163627
1"
#1163713
0"
#1163879
1"
#1163965
0"
#1164131
1"
#1164217
0"
#1164383
1"
#1164469
0"
#1164635
1"
#1164721
0"
#1164887
1"
#1164973
0"
#1165139
1"
#1165225
0"
#1165391
1"
#1165477
0"
#1165643
1"
#1165729
0"
#1165895
1"
#1165981
0"
#1166147
1"
#1166233
0"
#1166399
1"
#1166485
0"
#1166651
1"
#1166737
0"
#1166903
1"
#1166989
0"
#1167155
1"
#1167241
0"
#1167407
1"
#1167493
0"
#1167659
1"
#1167745
0"
#1167911
1"
#1167997
0"
#1168163
1"
#1168249
0"
#1168415
1"
#1168501
0"
#1168667
1"
#1168753
0"
#1168919
1"
#1169005
0"
#1169171
1"
#1169257
0"
#1169423
1"
#1169509
0"
#1169675
1"
#1169761
0"
#1169927
1"
#1170013
0"
#1170179
1"
#1170265
0"
#1170431
1"
#1170517
0"
#1170683
1"
#1170769
0"
#1170935
1"
#1171021
0"
#1171419
1"
#1171671
z!
#1171925
1#
